Data Programming
…
colnames(df)

 [1] "Job.Id"           "Experience"       "Qualifications"   "Salary.Range"    
 [5] "location"         "Country"          "latitude"         "longitude"       
 [9] "Work.Type"        "Company.Size"     "Job.Posting.Date" "Preference"      
[13] "Contact.Person"   "Contact"          "Job.Title"        "Role"            
[17] "Job.Portal"       "Job.Description"  "Benefits"         "skills"          
[21] "Responsibilities" "Company"          "Company.Profile" 

library(tibble)
df_tibble <- as_tibble(df)
df_tibble

# A tibble: 1,615,940 × 23
    Job.Id Experience    Qualifications Salary.Range location   Country latitude
     <dbl> <chr>         <chr>          <chr>        <chr>      <chr>      <dbl>
 1 1.09e15 5 to 15 Years M.Tech         $59K-$99K    Douglas    Isle o…   54.2  
 2 3.98e14 2 to 12 Years BCA            $56K-$116K   Ashgabat   Turkme…   39.0  
 3 4.82e14 0 to 12 Years PhD            $61K-$104K   Macao      Macao …   22.2  
 4 6.88e14 4 to 11 Years PhD            $65K-$91K    Porto-Novo Benin      9.31 
 5 1.17e14 1 to 12 Years MBA            $64K-$87K    Santiago   Chile    -35.7  
 6 1.17e14 4 to 12 Years MCA            $59K-$93K    Brussels   Belgium   50.5  
 7 1.29e15 3 to 15 Years PhD            $63K-$103K   George To… Cayman…   19.3  
 8 1.50e15 2 to 8 Years  M.Com          $65K-$102K   SÃ£o TomÃ© Sao To…    0.186
 9 1.68e15 2 to 9 Years  BBA            $65K-$102K   Male       Maldiv…    3.20 
10 2.56e14 1 to 10 Years BBA            $60K-$80K    Saint Joh… Antigu…   17.1  
# ℹ 1,615,930 more rows
# ℹ 16 more variables: longitude <dbl>, Work.Type <chr>, Company.Size <int>,
#   Job.Posting.Date <chr>, Preference <chr>, Contact.Person <chr>,
#   Contact <chr>, Job.Title <chr>, Role <chr>, Job.Portal <chr>,
#   Job.Description <chr>, Benefits <chr>, skills <chr>,
#   Responsibilities <chr>, Company <chr>, Company.Profile <chr>
…
